31
27
40
29
19
19
8
7
27
8
9
8
10
18
8
12
11
14
7
16
14
10
7
10
15
18
10
26
18
9
25
29
27
33
17
18
8
9
21
16
30
14
29
27
20
17
29
32
25
14
16
18
26
24
10
25
27
18
28
28
16
16
29
31
25
26
17
27
28
20
26
17
19
8
15
8
14
10
14
10
7
7
14
10
12
16
13
12
11
13
8
16
13
7
7
7
9
9
10
16
7
37
18
15
35
7
19
16
25
36
9
32
29
14
30
28
27
34
25
26
31
18
27
24
16
29
29
30
18
26
28
18
18
18
26
26
20
23
18
25
13
10
14
12
9
13
11
12
7
6
15
7
9
11
18
8
7
17
13
16
24
8
8
13
34
43
16
45
18
40
19
19
28
17
7
16
18
16
28
19
16
29
15
15
31
15
29
39
70
35
9
15
20
19
16
36
8
20
18
25
18
10
9
8
13
10
7
12
13
15
8
10
12
8
11
15
7
17
15
17
14
16
19
31
16
17
29
27
29
27
47
7
31
16
21
8
15
16
8
20
13
17
20
15
29
14
15
21
23
6
9
23
40
25
19
20
8
29
18
18
18
7
16
27
15
13
25
14
17
11
38
11
18
7
8
9
11
11
7
28
42
16
26
10
26
16
16
17
17
15
12
19
22
21
20
21
6
44
10
34
21
17
26
19
10
26
17
31
19
9
31
9
15
27
27
15
24
24
21
34
21
29
35
20
17
29
17
27
23
12
11
8
17
9
10
17
11
22
11
17
10
21
20
20
24
23
13
25
18
28
14
29
31
20
37
8
40
24
16
21
12
30
15
30
11
39
28
9
16
29
17
22
18
31
16
16
31
34
10
32
36
19
18
27
19
18
13
12
9
9
11
13
10
10
26
11
14
12
16
14
12
10
15
17
9
15
11
29
31
19
25
34
23
33
21
18
13
25
29
16
37
18
27
31
22
19
28
28
26
18
20
31
33
29
27
26
28
24
7
15
17
175
16
24
16
26
21
30
29
8
24
8
16
10
12
10
8
9
16
9
7
6
7
13
8
7
6
18
16
10
9
19
26
10
25
12
23
106
17
28
13
15
19
26
27
19
6
28
13
21
24
27
18
23
29
23
26
29
17
29
18
15
25
26
15
13
9
28
23
17
15
14
13
15
15
17
16
25
19
18
18
27
22
12
14
13
10
8
10
10
9
7
9
11
30
7
19
12
25
11
11
7
7
15
16
18
28
30
22
8
29
25
17
25
21
24
16
19
31
28
27
17
16
21
13
27
16
16
26
27
20
18
27
13
24
26
15
31
16
6
28
7
27
28
7
17
9
9
11
7
9
12
10
9
6
15
6
9
7
14
10
15
6
14
8
16
12
19
25
7
28
15
15
19
24
23
19
15
18
15
15
21
27
15
8
27
14
15
19
17
6
13
32
31
15
18
6
25
15
9
15
22
7
17
22
12
28
13
17
17
28
7
19
6
15
16
18
17
17
17
27
16
18
21
5
33
22
14
14
13
11
9
12
7
5
8
15
17
10
17
7
9
10
16
9
7
7
6
8
13
17
19
18
7
20
27
14
26
27
8
26
16
22
17
17
15
25
21
23
14
27
17
8
12
15
6
8
7
9
13
17
7
15
8
4
14
12
22
16
22
16
16
16
15
31
16
6
27
6
16
9
24
15
28
9
18
6
7
11
7
8
13
8
25
14
16
14
8
14
14
14
18
15
15
15
13
19
15
16
27
11
16
7
14
28
25
21
16
17
6
26
23
17
14
16
29
26
27
10
26
17
18
18
7
16
7
21
25
15
14
32
13
15
9
17
6
17
18
18
14
30
15
31
30
8
27
6
25
25
28
16
7
11
12
9
6
26
8
14
9
7
9
12
17
6
8
10
8
14
12
16
12
19
15
16
37
17
17
25
23
27
27
17
15
16
6
19
26
20
18
26
27
15
13
23
25
17
18
17
6
19
10
18
14
20
18
19
26
15
21
27
18
6
16
19
6
28
17
29
16
6
30
18
18
26
27
15
11
10
8
6
8
9
10
17
26
6
11
7
11
7
9
7
7
12
12
13
15
16
13
21
30
10
18
31
17
24
16
26
16
29
28
16
21
17
19
26
17
17
15
35
7
25
19
32
15
14
23
20
15
19
16
24
30
26
19
7
28
22
27
16
16
19
21
17
28
10
12
13
10
9
11
7
11
8
14
14
10
7
15
19
14
15
12
19
7
12
18
19
11
23
13
20
16
25
27
27
16
18
28
