69
5
5
5
5
5
4
4
6
5
6
5
5
6
5
5
5
5
5
9
5
6
8
5
6
7
5
5
6
5
4
5
5
5
4
4
6
5
6
5
6
5
5
5
8
4
5
6
5
5
6
5
6
5
6
5
5
7
5
5
5
5
5
6
5
6
5
5
5
7
6
5
7
5
5
13
5
5
5
5
5
5
5
4
4
5
5
6
5
4
5
5
6
5
6
5
5
6
5
5
